<svg xmlns="http://www.w3.org/2000/svg" viewBox="0 0 18.38 18.38">
  <title>close</title>
  <path d="M0,17L7.78,9.19,0,1.41,1.41,0,9.19,7.78,17,0l1.41,1.41L10.61,9.19,18.38,17,17,18.38,9.19,10.61,1.41,18.38Z" style="fill: #00aeef"/>
</svg>
