<svg xmlns="http://www.w3.org/2000/svg" viewBox="0 0 21.48 66.29">
  <title>man</title>
  <path d="M19.46,17.12c0.65,1.41,2,19.07,2,19.07a1.86,1.86,0,0,1-1.58,2.08H19.7a1.81,1.81,0,0,1-1.76-1.69L16.55,21.24,16.21,33.15l1,30.78a2.17,2.17,0,0,1-1.92,2.35H15.16a2.14,2.14,0,0,1-2.08-2.05L10.74,38.89,8.39,64.24a2.14,2.14,0,0,1-2.08,2.05H6.17a2.17,2.17,0,0,1-1.92-2.35l1-30.78L4.92,21.24,3.53,36.58a1.81,1.81,0,0,1-1.76,1.69H1.59A1.86,1.86,0,0,1,0,36.18S1.37,18.53,2,17.12c1.29-2.82,3.29-4.54,8.21-4.54h1c4.92,0,6.92,1.72,8.21,4.54M10.75,0A5.46,5.46,0,0,1,16,5.64a5.46,5.46,0,0,1-5.26,5.63A5.46,5.46,0,0,1,5.47,5.64,5.46,5.46,0,0,1,10.75,0" style="fill: #3b4395"/>
</svg>
