<svg xmlns="http://www.w3.org/2000/svg" viewBox="0 0 56 56">
  <title>med_devices</title>
  <path d="M28,53A25,25,0,0,0,37.73,5,25,25,0,0,0,18.27,51,24.84,24.84,0,0,0,28,53m0,3A28,28,0,1,1,56,28,28,28,0,0,1,28,56Z" style="fill: #9b1944"/>
  <path d="M28.14,43.19a4.49,4.49,0,0,1-4.49-4.49V32.26a1.59,1.59,0,0,0-1.59-1.59H18.7a4,4,0,1,1,.15-2.28h3.21a3.87,3.87,0,0,1,3.87,3.87V38.7a2.21,2.21,0,1,0,4.41,0V31.37a2.79,2.79,0,0,1-1.63-2.52V27.54a7.66,7.66,0,0,1-3.49-2.76,7.56,7.56,0,0,1-1.36-4.34V12h4.36v2.28H26.13v6.16a5.35,5.35,0,0,0,10.7.29q0-.15,0-0.29V14.28H34.75V12h4.36v8.44a7.56,7.56,0,0,1-1.36,4.34,7.66,7.66,0,0,1-3.49,2.76v1.31a2.78,2.78,0,0,1-1.63,2.52V38.7A4.49,4.49,0,0,1,28.14,43.19ZM15,27.6a1.7,1.7,0,1,0,1.7,1.7A1.7,1.7,0,0,0,15,27.6Zm16,0.45v0.8a0.5,0.5,0,1,0,1,0v-0.8H31.85l-0.37,0-0.37,0H31Z" style="fill: #1d1d1b"/>
</svg>
